%YAML 1.1
%TAG !u! tag:unity3d.com,2011:
--- !u!114 &11400000
MonoBehaviour:
  m_ObjectHideFlags: 0
  m_CorrespondingSourceObject: {fileID: 0}
  m_PrefabInstance: {fileID: 0}
  m_PrefabAsset: {fileID: 0}
  m_GameObject: {fileID: 0}
  m_Enabled: 1
  m_EditorHideFlags: 0
  m_Script: {fileID: 11500000, guid: a2032f2ad65c2cfa898df20006e70bfa, type: 3}
  m_Name: SwordData
  m_EditorClassIdentifier: 
  Cost: 50
  Description: gives 25 health danage
  DestroyOnUse: 0
  Icon: {fileID: 21300000, guid: 5fd50594014b70e48bd6993443d46b32, type: 3}
  Name: Sword
  Weight: 5
  ArrowCost: 0
  HealthDamage: 25
  HitBoxFinalPos: {x: 0, y: 1}
  HitBoxFinalScale: {x: 0.3, y: 1}
  HitBoxStartPos: {x: 0, y: 0}
  HitBoxStartScale: {x: 0.3, y: 1}
  ManaCost: 0
  ManaDamage: 0
  StaminaCost: 10
  StaminaDamage: 0
  WeaponPrefab: {fileID: 4359245891236106091, guid: b7f4c49a28b7c40dd8eb5bf1166bee62,
    type: 3}
