%YAML 1.1
%TAG !u! tag:unity3d.com,2011:
--- !u!114 &11400000
MonoBehaviour:
  m_ObjectHideFlags: 0
  m_CorrespondingSourceObject: {fileID: 0}
  m_PrefabInstance: {fileID: 0}
  m_PrefabAsset: {fileID: 0}
  m_GameObject: {fileID: 0}
  m_Enabled: 1
  m_EditorHideFlags: 0
  m_Script: {fileID: 11500000, guid: 5938803e7ea813036a9309410cb932be, type: 3}
  m_Name: TestScroll
  m_EditorClassIdentifier: 
  Cost: 1
  Description: Scroll
  Icon: {fileID: 21300000, guid: db427fab3e94daf4caa704d9314a77a1, type: 3}
  Name: TestScroll
  Weight: 1
  ItemID:
    Type: 2
    SubType: 0
  ScrollFile: {fileID: 4900000, guid: 0c52c19cda9c3ea5f8581e63bd6cd154, type: 3}
