%YAML 1.1
%TAG !u! tag:unity3d.com,2011:
--- !u!114 &11400000
MonoBehaviour:
  m_ObjectHideFlags: 0
  m_CorrespondingSourceObject: {fileID: 0}
  m_PrefabInstance: {fileID: 0}
  m_PrefabAsset: {fileID: 0}
  m_GameObject: {fileID: 0}
  m_Enabled: 1
  m_EditorHideFlags: 0
  m_Script: {fileID: 11500000, guid: 5b4ce29fbba6457e5be87fe934c946f8, type: 3}
  m_Name: Stamina Potion - 50
  m_EditorClassIdentifier: 
  Cost: 50
  Description: Regenerates 50 Stamina
  Icon: {fileID: 21300000, guid: e52ea25af699fd445b7046374f81a5b9, type: 3}
  Name: Big Stamina Potion
  Weight: 2
  ItemID:
    Type: 1
    SubType: 11
  HealthEffect: 0
  ManaEffect: 0
  StaminaEffect: 50
